{
  "DataProvider": "sqlserver",
  "DataConnectionString": "Data Source=18.222.230.150\\SQLEXPRESS,1433;Initial Catalog=nopj;Integrated Security=False;Persist Security Info=False;User ID=sa;Password=26dec@1995",
  "RawDataSettings": {}
}